EESchema Schematic File Version 4
EELAYER 30 0
EELAYER END
$Descr A4 11693 8268
encoding utf-8
Sheet 1 1
Title "MCS02A"
Date "2020-09-03"
Rev ""
Comp "elektroika"
Comment1 ""
Comment2 ""
Comment3 ""
Comment4 ""
$EndDescr
$Comp
L power:GND #PWR0105
U 1 1 5F4F3ED0
P 5350 5850
F 0 "#PWR0105" H 5350 5600 50  0001 C CNN
F 1 "GND" H 5355 5677 50  0000 C CNN
F 2 "" H 5350 5850 50  0001 C CNN
F 3 "" H 5350 5850 50  0001 C CNN
	1    5350 5850
	1    0    0    -1  
$EndComp
$Comp
L Device:C C1
U 1 1 5F4F5309
P 3600 5000
F 0 "C1" H 3715 5046 50  0000 L CNN
F 1 "100nF" H 3715 4955 50  0000 L CNN
F 2 "Capacitor_SMD:C_0603_1608Metric_Pad1.05x0.95mm_HandSolder" H 3638 4850 50  0001 C CNN
F 3 "~" H 3600 5000 50  0001 C CNN
	1    3600 5000
	1    0    0    -1  
$EndComp
Wire Wire Line
	4950 4300 4950 4500
Wire Wire Line
	4950 4500 5050 4500
Wire Wire Line
	5350 5850 5350 5700
Wire Wire Line
	5350 5700 5450 5700
Wire Wire Line
	5750 5700 5750 5600
Connection ~ 5350 5700
Wire Wire Line
	5350 5700 5350 5600
Wire Wire Line
	5650 5600 5650 5700
Connection ~ 5650 5700
Wire Wire Line
	5650 5700 5750 5700
Wire Wire Line
	5550 5600 5550 5700
Connection ~ 5550 5700
Wire Wire Line
	5550 5700 5650 5700
Wire Wire Line
	5450 5600 5450 5700
Connection ~ 5450 5700
Wire Wire Line
	5450 5700 5550 5700
$Comp
L power:GND #PWR0108
U 1 1 5F4F8B77
P 3600 5300
F 0 "#PWR0108" H 3600 5050 50  0001 C CNN
F 1 "GND" H 3750 5200 50  0000 C CNN
F 2 "" H 3600 5300 50  0001 C CNN
F 3 "" H 3600 5300 50  0001 C CNN
	1    3600 5300
	1    0    0    -1  
$EndComp
Wire Wire Line
	3600 4700 3600 4850
Wire Wire Line
	3600 5150 3600 5300
$Comp
L Connector_Generic:Conn_01x01 J2
U 1 1 5F4F424A
P 4450 5000
F 0 "J2" H 4450 4900 50  0000 C CNN
F 1 "IP-" H 4600 5000 50  0000 C CNN
F 2 "MountingHole:MountingHole_3.2mm_M3_Pad" H 4450 5000 50  0001 C CNN
F 3 "~" H 4450 5000 50  0001 C CNN
	1    4450 5000
	-1   0    0    1   
$EndComp
Wire Wire Line
	5050 4800 4950 4800
Wire Wire Line
	4950 4800 4950 4700
Connection ~ 4950 4700
Wire Wire Line
	4950 4700 5050 4700
Wire Wire Line
	5050 5000 4950 5000
Wire Wire Line
	5050 5100 4950 5100
Wire Wire Line
	4950 5100 4950 5000
Connection ~ 4950 5000
Wire Wire Line
	4950 5000 4650 5000
Wire Wire Line
	4650 4700 4950 4700
$Comp
L Connector_Generic:Conn_01x01 J1
U 1 1 5F4F3B9A
P 4450 4700
F 0 "J1" H 4450 4600 50  0000 C CNN
F 1 "IP+" H 4600 4700 50  0000 C CNN
F 2 "MountingHole:MountingHole_3.2mm_M3_Pad" H 4450 4700 50  0001 C CNN
F 3 "~" H 4450 4700 50  0001 C CNN
	1    4450 4700
	-1   0    0    1   
$EndComp
Text Label 4700 4700 0    50   ~ 0
IP+
Text Label 4700 5000 0    50   ~ 0
IP-
Text Label 6300 4900 0    50   ~ 0
VIOUT
$Comp
L Connector_Generic:Conn_01x04 J3
U 1 1 5F4F5765
P 8200 4750
F 0 "J3" H 8280 4792 50  0000 L CNN
F 1 "53254-0470" H 8280 4701 50  0000 L CNN
F 2 "Connector_Molex:Molex_Micro-Latch_53254-0470_1x04_P2.00mm_Horizontal" H 8200 4750 50  0001 C CNN
F 3 "~" H 8200 4750 50  0001 C CNN
F 4 "53254-0470" H 8200 4750 50  0001 C CNN "Part Number"
F 5 "Molex" H 8200 4750 50  0001 C CNN "Manufacturer"
	1    8200 4750
	1    0    0    -1  
$EndComp
$Comp
L Device:Ferrite_Bead_Small FB1
U 1 1 5F4F5EE6
P 7650 5050
F 0 "FB1" V 7600 4950 50  0000 C CNN
F 1 "MPZ1608D101B" V 7600 5450 50  0000 C CNN
F 2 "Inductor_SMD:L_0603_1608Metric" V 7580 5050 50  0001 C CNN
F 3 "~" H 7650 5050 50  0001 C CNN
	1    7650 5050
	0    1    -1   0   
$EndComp
$Comp
L Device:Ferrite_Bead_Small FB3
U 1 1 5F4F88F5
P 7650 4550
F 0 "FB3" V 7600 4450 50  0000 C CNN
F 1 "MPZ1608D101B" V 7700 4950 50  0000 C CNN
F 2 "Inductor_SMD:L_0603_1608Metric" V 7580 4550 50  0001 C CNN
F 3 "~" H 7650 4550 50  0001 C CNN
	1    7650 4550
	0    1    -1   0   
$EndComp
Text Label 7900 4750 2    50   ~ 0
VIOUT
$Comp
L power:+3.3V #PWR0101
U 1 1 5F538BE1
P 4950 4300
F 0 "#PWR0101" H 4950 4150 50  0001 C CNN
F 1 "+3.3V" H 4965 4473 50  0000 C CNN
F 2 "" H 4950 4300 50  0001 C CNN
F 3 "" H 4950 4300 50  0001 C CNN
	1    4950 4300
	1    0    0    -1  
$EndComp
$Comp
L power:+3.3V #PWR0102
U 1 1 5F53938B
P 3600 4700
F 0 "#PWR0102" H 3600 4550 50  0001 C CNN
F 1 "+3.3V" H 3615 4873 50  0000 C CNN
F 2 "" H 3600 4700 50  0001 C CNN
F 3 "" H 3600 4700 50  0001 C CNN
	1    3600 4700
	1    0    0    -1  
$EndComp
Connection ~ 6200 4900
Wire Wire Line
	6200 4900 6500 4900
Wire Wire Line
	6050 4900 6200 4900
Wire Wire Line
	6200 5300 6200 5450
$Comp
L power:GND #PWR0106
U 1 1 5F4F700D
P 6200 5450
F 0 "#PWR0106" H 6200 5200 50  0001 C CNN
F 1 "GND" H 6205 5277 50  0000 C CNN
F 2 "" H 6200 5450 50  0001 C CNN
F 3 "" H 6200 5450 50  0001 C CNN
	1    6200 5450
	1    0    0    -1  
$EndComp
Wire Wire Line
	6200 4900 6200 5000
$Comp
L Device:C C2
U 1 1 5F4F4E82
P 6200 5150
F 0 "C2" H 6315 5196 50  0000 L CNN
F 1 "22pF" H 6315 5105 50  0000 L CNN
F 2 "Capacitor_SMD:C_0603_1608Metric_Pad1.05x0.95mm_HandSolder" H 6238 5000 50  0001 C CNN
F 3 "~" H 6200 5150 50  0001 C CNN
	1    6200 5150
	1    0    0    -1  
$EndComp
$Comp
L Custom_Current_Sensor:ACS70331ES U1
U 1 1 5F4F3155
P 5550 4900
F 0 "U1" H 5550 5565 50  0000 C CNN
F 1 "ACS70331ES" H 5550 5474 50  0000 C CNN
F 2 "ACS70331ES:IC_QFN_ACS70331ES" H 5550 4900 50  0001 C CNN
F 3 "" H 5550 4900 50  0001 C CNN
	1    5550 4900
	1    0    0    -1  
$EndComp
Wire Wire Line
	7850 4950 8000 4950
Wire Wire Line
	8000 4650 7850 4650
Wire Wire Line
	7850 4650 7850 4550
Wire Wire Line
	7850 4550 7750 4550
Wire Wire Line
	7750 5050 7850 5050
Wire Wire Line
	7850 5050 7850 4950
$Comp
L Regulator_Linear:TLV70233_SOT23-5 U2
U 1 1 5F5142F6
P 5400 2850
F 0 "U2" H 5400 3192 50  0000 C CNN
F 1 "TLV70233_SOT23-5" H 5400 3101 50  0000 C CNN
F 2 "Package_TO_SOT_SMD:SOT-23-5" H 5400 3175 50  0001 C CIN
F 3 "http://www.ti.com/lit/ds/symlink/tlv702.pdf" H 5400 2900 50  0001 C CNN
	1    5400 2850
	1    0    0    -1  
$EndComp
Wire Wire Line
	5700 2750 5900 2750
$Comp
L power:GND #PWR0110
U 1 1 5F51A113
P 5400 3250
F 0 "#PWR0110" H 5400 3000 50  0001 C CNN
F 1 "GND" H 5405 3077 50  0000 C CNN
F 2 "" H 5400 3250 50  0001 C CNN
F 3 "" H 5400 3250 50  0001 C CNN
	1    5400 3250
	1    0    0    -1  
$EndComp
Wire Wire Line
	5400 3150 5400 3250
$Comp
L Device:C C4
U 1 1 5F51AF11
P 5900 3000
F 0 "C4" H 6015 3046 50  0000 L CNN
F 1 "1uF" H 6015 2955 50  0000 L CNN
F 2 "Capacitor_SMD:C_0603_1608Metric_Pad1.05x0.95mm_HandSolder" H 5938 2850 50  0001 C CNN
F 3 "~" H 5900 3000 50  0001 C CNN
	1    5900 3000
	1    0    0    -1  
$EndComp
$Comp
L power:GND #PWR0111
U 1 1 5F51B539
P 5900 3250
F 0 "#PWR0111" H 5900 3000 50  0001 C CNN
F 1 "GND" H 5905 3077 50  0000 C CNN
F 2 "" H 5900 3250 50  0001 C CNN
F 3 "" H 5900 3250 50  0001 C CNN
	1    5900 3250
	1    0    0    -1  
$EndComp
$Comp
L Device:C C3
U 1 1 5F51C75D
P 4750 3000
F 0 "C3" H 4865 3046 50  0000 L CNN
F 1 "1uF" H 4865 2955 50  0000 L CNN
F 2 "Capacitor_SMD:C_0603_1608Metric_Pad1.05x0.95mm_HandSolder" H 4788 2850 50  0001 C CNN
F 3 "~" H 4750 3000 50  0001 C CNN
	1    4750 3000
	1    0    0    -1  
$EndComp
Wire Wire Line
	4750 2850 4750 2750
Wire Wire Line
	4750 2750 5000 2750
$Comp
L power:GND #PWR0112
U 1 1 5F51D96D
P 4750 3250
F 0 "#PWR0112" H 4750 3000 50  0001 C CNN
F 1 "GND" H 4755 3077 50  0000 C CNN
F 2 "" H 4750 3250 50  0001 C CNN
F 3 "" H 4750 3250 50  0001 C CNN
	1    4750 3250
	1    0    0    -1  
$EndComp
Wire Wire Line
	4750 3150 4750 3250
Wire Wire Line
	5100 2850 5000 2850
Wire Wire Line
	5000 2850 5000 2750
Connection ~ 5000 2750
Wire Wire Line
	5000 2750 5100 2750
Wire Wire Line
	5900 2750 5900 2850
Wire Wire Line
	5900 3150 5900 3250
Text Notes 3450 2400 0    50   ~ 0
Good for ERC Check
Wire Notes Line
	3500 3500 4150 3500
Wire Notes Line
	4150 2450 4150 3500
Wire Notes Line
	3500 2450 4150 2450
Wire Notes Line
	3500 2450 3500 3500
Wire Wire Line
	3800 3150 4000 3150
Wire Wire Line
	3800 3000 3800 3150
Wire Wire Line
	3600 3000 3600 3250
$Comp
L power:GND #PWR0109
U 1 1 5F5122ED
P 3600 3250
F 0 "#PWR0109" H 3600 3000 50  0001 C CNN
F 1 "GND" H 3605 3077 50  0000 C CNN
F 2 "" H 3600 3250 50  0001 C CNN
F 3 "" H 3600 3250 50  0001 C CNN
	1    3600 3250
	1    0    0    -1  
$EndComp
$Comp
L power:PWR_FLAG #FLG0102
U 1 1 5F5111CC
P 3800 3000
F 0 "#FLG0102" H 3800 3075 50  0001 C CNN
F 1 "PWR_FLAG" V 3800 3300 50  0000 C CNN
F 2 "" H 3800 3000 50  0001 C CNN
F 3 "~" H 3800 3000 50  0001 C CNN
	1    3800 3000
	1    0    0    -1  
$EndComp
$Comp
L power:PWR_FLAG #FLG0101
U 1 1 5F510E84
P 3600 3000
F 0 "#FLG0101" H 3600 3075 50  0001 C CNN
F 1 "PWR_FLAG" V 3600 3300 50  0000 C CNN
F 2 "" H 3600 3000 50  0001 C CNN
F 3 "~" H 3600 3000 50  0001 C CNN
	1    3600 3000
	1    0    0    -1  
$EndComp
$Comp
L power:+5V #PWR0104
U 1 1 5F545A5D
P 4000 2950
F 0 "#PWR0104" H 4000 2800 50  0001 C CNN
F 1 "+5V" H 4015 3123 50  0000 C CNN
F 2 "" H 4000 2950 50  0001 C CNN
F 3 "" H 4000 2950 50  0001 C CNN
	1    4000 2950
	1    0    0    -1  
$EndComp
Wire Wire Line
	4000 2950 4000 3150
$Comp
L Jumper:SolderJumper_2_Open JP1
U 1 1 5F548291
P 7000 3050
F 0 "JP1" H 7000 3150 50  0000 C CNN
F 1 "Regulator_Bypass" H 7000 2900 50  0000 C CNN
F 2 "Jumper:SolderJumper-2_P1.3mm_Open_Pad1.0x1.5mm" H 7000 3050 50  0001 C CNN
F 3 "~" H 7000 3050 50  0001 C CNN
	1    7000 3050
	1    0    0    -1  
$EndComp
Connection ~ 4750 2750
Connection ~ 5900 2750
Wire Wire Line
	7550 4550 7400 4550
Wire Wire Line
	7550 5050 7450 5050
Text Label 5350 5800 0    50   ~ 0
GND
Wire Wire Line
	6850 3050 6750 3050
$Comp
L power:+5V #PWR0103
U 1 1 5F558EF0
P 4750 2650
F 0 "#PWR0103" H 4750 2500 50  0001 C CNN
F 1 "+5V" H 4765 2823 50  0000 C CNN
F 2 "" H 4750 2650 50  0001 C CNN
F 3 "" H 4750 2650 50  0001 C CNN
	1    4750 2650
	1    0    0    -1  
$EndComp
Wire Wire Line
	4750 2650 4750 2750
$Comp
L power:+3.3V #PWR0107
U 1 1 5F55A685
P 5900 2650
F 0 "#PWR0107" H 5900 2500 50  0001 C CNN
F 1 "+3.3V" H 5915 2823 50  0000 C CNN
F 2 "" H 5900 2650 50  0001 C CNN
F 3 "" H 5900 2650 50  0001 C CNN
	1    5900 2650
	1    0    0    -1  
$EndComp
Wire Wire Line
	5900 2650 5900 2750
Wire Wire Line
	7150 3050 7250 3050
Text Notes 650  700  0    50   ~ 0
This design is licensed under Creative Commons Attribution 4.0 International (CC BY 4.0)\n
Text Notes 650  1050 0    50   ~ 0
You are free to:\n    Share — copy and redistribute the material in any medium or format\n    Adapt — remix, transform, and build upon the material  for any purpose, even commercially. \n
$Comp
L power:+3.3V #PWR0113
U 1 1 5F58DF4A
P 7250 2950
F 0 "#PWR0113" H 7250 2800 50  0001 C CNN
F 1 "+3.3V" H 7265 3123 50  0000 C CNN
F 2 "" H 7250 2950 50  0001 C CNN
F 3 "" H 7250 2950 50  0001 C CNN
	1    7250 2950
	1    0    0    -1  
$EndComp
Wire Wire Line
	7250 2950 7250 3050
$Comp
L power:+5V #PWR0114
U 1 1 5F59021D
P 7400 4550
F 0 "#PWR0114" H 7400 4400 50  0001 C CNN
F 1 "+5V" V 7400 4750 50  0000 C CNN
F 2 "" H 7400 4550 50  0001 C CNN
F 3 "" H 7400 4550 50  0001 C CNN
	1    7400 4550
	0    -1   1    0   
$EndComp
$Comp
L power:GND #PWR0115
U 1 1 5F5929CD
P 7450 5150
F 0 "#PWR0115" H 7450 4900 50  0001 C CNN
F 1 "GND" H 7300 5050 50  0000 C CNN
F 2 "" H 7450 5150 50  0001 C CNN
F 3 "" H 7450 5150 50  0001 C CNN
	1    7450 5150
	-1   0    0    -1  
$EndComp
Wire Wire Line
	7450 5150 7450 5050
Wire Wire Line
	7550 4750 8000 4750
$Comp
L power:+5V #PWR0116
U 1 1 5F59F1EC
P 6750 2950
F 0 "#PWR0116" H 6750 2800 50  0001 C CNN
F 1 "+5V" H 6765 3123 50  0000 C CNN
F 2 "" H 6750 2950 50  0001 C CNN
F 3 "" H 6750 2950 50  0001 C CNN
	1    6750 2950
	1    0    0    -1  
$EndComp
Wire Wire Line
	6750 2950 6750 3050
$EndSCHEMATC
